Trabajo final
…
Modelo tras remover puntos aberrantes

obs_sin_aber <- obs[-modelo_completo.cooked_1,]
obs_sin_aber

# A tibble: 462 x 10
   sex    smoker   age   bmi Claim_Amount past_consultations num_of_steps
   <chr>  <chr>  <dbl> <dbl>        <dbl>              <dbl>        <dbl>
 1 male   no        28  33.8       24108.                 18       983349
 2 male   yes       33  27.1       39953.                 27       996320
 3 female no        48  28.9       45756.                 24       912509
 4 male   no        63  31.4       34046.                 14       953355
 5 male   no        48  34.3       36944.                 18       926940
 6 female no        59  32.4       44302.                 18       940460
 7 male   no        38  34.7        8821.                 12       880463
 8 female no        63  31.8       26904.                 11       954102
 9 female no        22  24.3        5289.                  8       764144
10 female no        54  31.9       41178.                 24       919493
# i 452 more rows
# i 3 more variables: Number_of_past_hospitalizations <dbl>,
#   Anual_Salary <dbl>, charges <dbl>
…
